<?xml version="1.0" standalone="no"?>
<!DOCTYPE svg PUBLIC "-//W3C//DTD SVG 20010904//EN"
 "http://www.w3.org/TR/2001/REC-SVG-20010904/DTD/svg10.dtd">
<svg version="1.0" xmlns="http://www.w3.org/2000/svg"
 width="260.000000pt" height="260.000000pt" viewBox="0 0 260.000000 260.000000"
 preserveAspectRatio="xMidYMid meet">
<metadata>
Created by potrace 1.11, written by Peter Selinger 2001-2013
</metadata>
<g transform="translate(0.000000,260.000000) scale(0.100000,-0.100000)"
fill="#000000" stroke="none">
<path d="M1980 2266 c-707 -194 -631 -169 -770 -253 -218 -132 -383 -245 -435
-298 -29 -29 -58 -51 -68 -49 -9 1 -72 5 -140 8 -152 7 -224 14 -262 26 -16 6
-61 12 -99 15 -67 5 -70 4 -123 -32 -30 -21 -57 -41 -60 -46 -3 -5 12 -48 32
-97 l37 -88 60 -12 c34 -6 89 -13 122 -14 117 -6 340 -69 486 -139 l96 -45 26
-104 c78 -310 100 -384 119 -400 10 -9 149 -82 307 -161 158 -80 367 -186 466
-236 98 -50 187 -91 197 -91 48 0 351 402 483 640 26 47 61 108 78 135 42 69
47 91 54 235 5 91 3 137 -7 170 -7 25 -14 54 -15 65 -1 11 -5 38 -9 60 -3 22
-9 54 -11 70 -4 27 -71 357 -79 395 -16 70 -61 202 -87 257 -29 60 -36 68 -63
70 -16 1 -167 -35 -335 -81z"/>
</g>
</svg>
