

 {"countryDetails":[   {     "name": "Afghanistan",     "alpha-2": "AF",     "alpha": "AFG",     "numeric": "004"   },   {     "name": "Albania",     "alpha-2": "AL",     "alpha": "ALB",     "numeric": "008"   },   {     "name": "Algeria",     "alpha-2": "DZ",     "alpha": "DZA",     "numeric": "012"   },   {     "name": "American Samoa",     "alpha-2": "AS",     "alpha": "ASM",     "numeric": "016"   },   {     "name": "Andorra",     "alpha-2": "AD",     "alpha": "AND",     "numeric": "020"   },   {     "name": "Angola",     "alpha-2": "AO",     "alpha": "AGO",     "numeric": "024"   },   {     "name": "Anguilla",     "alpha-2": "AI",     "alpha": "AIA",     "numeric": 660   },   {     "name": "Antarctica",     "alpha-2": "AQ",     "alpha": "ATA",     "numeric": "010"   },   {     "name": "Antigua and Barbuda",     "alpha-2": "AG",     "alpha": "ATG",     "numeric": "028"   },   {     "name": "Argentina",     "alpha-2": "AR",     "alpha": "ARG",     "numeric": "032"   },   {     "name": "Armenia",     "alpha-2": "AM",     "alpha": "ARM",     "numeric": "051"   },   {     "name": "Aruba",     "alpha-2": "AW",     "alpha": "ABW",     "numeric": 533   },   {     "name": "Australia",     "alpha-2": "AU",     "alpha": "AUS",     "numeric": "036"   },   {     "name": "Austria",     "alpha-2": "AT",     "alpha": "AUT",     "numeric": "040"   },   {     "name": "Azerbaijan",     "alpha-2": "AZ",     "alpha": "AZE",     "numeric": "031"   },   {     "name": "Bahamas",     "alpha-2": "BS",     "alpha": "BHS",     "numeric": "044"   },   {     "name": "Bahrain",     "alpha-2": "BH",     "alpha": "BHR",     "numeric": "048"   },   {     "name": "Bangladesh",     "alpha-2": "BD",     "alpha": "BGD",     "numeric": "050"   },   {     "name": "Barbados",     "alpha-2": "BB",     "alpha": "BRB",     "numeric": "052"   },   {     "name": "Belarus",     "alpha-2": "BY",     "alpha": "BLR",     "numeric": 112   },   {     "name": "Belgium",     "alpha-2": "BE",     "alpha": "BEL",     "numeric": "056"   },   {     "name": "Belize",     "alpha-2": "BZ",     "alpha": "BLZ",     "numeric": "084"   },   {     "name": "Benin",     "alpha-2": "BJ",     "alpha": "BEN",     "numeric": 204   },   {     "name": "Bermuda",     "alpha-2": "BM",     "alpha": "BMU",     "numeric": "060"   },   {     "name": "Bhutan",     "alpha-2": "BT",     "alpha": "BTN",     "numeric": "064"   },   {     "name": "Bolivia (Plurinational State of)",     "alpha-2": "BO",     "alpha": "BOL",     "numeric": "068"   },   {     "name": "Bonaire, Sint Eustatius and Saba",     "alpha-2": "BQ",     "alpha": "BES",     "numeric": 535   },   {     "name": "Bosnia and Herzegovina",     "alpha-2": "BA",     "alpha": "BIH",     "numeric": "070"   },   {     "name": "Botswana",     "alpha-2": "BW",     "alpha": "BWA",     "numeric": "072"   },   {     "name": "Bouvet Island",     "alpha-2": "BV",     "alpha": "BVT",     "numeric": "074"   },   {     "name": "Brazil",     "alpha-2": "BR",     "alpha": "BRA",     "numeric": "076"   },   {     "name": "British Indian Ocean Territory",     "alpha-2": "IO",     "alpha": "IOT",     "numeric": "086"   },   {     "name": "Brunei Darussalam",     "alpha-2": "BN",     "alpha": "BRN",     "numeric": "096"   },   {     "name": "Bulgaria",     "alpha-2": "BG",     "alpha": "BGR",     "numeric": 100   },   {     "name": "Burkina Faso",     "alpha-2": "BF",     "alpha": "BFA",     "numeric": 854   },   {     "name": "Burundi",     "alpha-2": "BI",     "alpha": "BDI",     "numeric": 108   },   {     "name": "Cabo Verde",     "alpha-2": "CV",     "alpha": "CPV",     "numeric": 132   },   {     "name": "Cambodia",     "alpha-2": "KH",     "alpha": "KHM",     "numeric": 116   },   {     "name": "Cameroon",     "alpha-2": "CM",     "alpha": "CMR",     "numeric": 120   },   {     "name": "Canada",     "alpha-2": "CA",     "alpha": "CAN",     "numeric": 124   },   {     "name": "Cayman Islands",     "alpha-2": "KY",     "alpha": "CYM",     "numeric": 136   },   {     "name": "Central African Republic",     "alpha-2": "CF",     "alpha": "CAF",     "numeric": 140   },   {     "name": "Chad",     "alpha-2": "TD",     "alpha": "TCD",     "numeric": 148   },   {     "name": "Chile",     "alpha-2": "CL",     "alpha": "CHL",     "numeric": 152   },   {     "name": "China",     "alpha-2": "CN",     "alpha": "CHN",     "numeric": 156   },   {     "name": "Christmas Island",     "alpha-2": "CX",     "alpha": "CXR",     "numeric": 162   },   {     "name": "Cocos (Keeling) Islands",     "alpha-2": "CC",     "alpha": "CCK",     "numeric": 166   },   {     "name": "Colombia",     "alpha-2": "CO",     "alpha": "COL",     "numeric": 170   },   {     "name": "Comoros",     "alpha-2": "KM",     "alpha": "COM",     "numeric": 174   },   {     "name": "Congo (the Democratic Republic of the)",     "alpha-2": "CD",     "alpha": "COD",     "numeric": 180   },   {     "name": "Congo",     "alpha-2": "CG",     "alpha": "COG",     "numeric": 178   },   {     "name": "Cook Islands",     "alpha-2": "CK",     "alpha": "COK",     "numeric": 184   },   {     "name": "Costa Rica",     "alpha-2": "CR",     "alpha": "CRI",     "numeric": 188   },   {     "name": "Croatia",     "alpha-2": "HR",     "alpha": "HRV",     "numeric": 191   },   {     "name": "Cuba",     "alpha-2": "CU",     "alpha": "CUB",     "numeric": 192   },   {     "name": "Cura'87ao",     "alpha-2": "CW",     "alpha": "CUW",     "numeric": 531   },   {     "name": "Cyprus",     "alpha-2": "CY",     "alpha": "CYP",     "numeric": 196   },   {     "name": "Czechia",     "alpha-2": "CZ",     "alpha": "CZE",     "numeric": 203   },   {     "name": "C'93te d'Ivoire",     "alpha-2": "CI",     "alpha": "CIV",     "numeric": 384   },   {     "name": "Denmark",     "alpha-2": "DK",     "alpha": "DNK",     "numeric": 208   },   {     "name": "Djibouti",     "alpha-2": "DJ",     "alpha": "DJI",     "numeric": 262   },   {     "name": "Dominica",     "alpha-2": "DM",     "alpha": "DMA",     "numeric": 212   },   {     "name": "Dominican Republic",     "alpha-2": "DO",     "alpha": "DOM",     "numeric": 214   },   {     "name": "Ecuador",     "alpha-2": "EC",     "alpha": "ECU",     "numeric": 218   },   {     "name": "Egypt",     "alpha-2": "EG",     "alpha": "EGY",     "numeric": 818   },   {     "name": "El Salvador",     "alpha-2": "SV",     "alpha": "SLV",     "numeric": 222   },   {     "name": "Equatorial Guinea",     "alpha-2": "GQ",     "alpha": "GNQ",     "numeric": 226   },   {     "name": "Eritrea",     "alpha-2": "ER",     "alpha": "ERI",     "numeric": 232   },   {     "name": "Estonia",     "alpha-2": "EE",     "alpha": "EST",     "numeric": 233   },   {     "name": "Eswatini",     "alpha-2": "SZ",     "alpha": "SWZ",     "numeric": 748   },   {     "name": "Ethiopia",     "alpha-2": "ET",     "alpha": "ETH",     "numeric": 231   },   {     "name": "Falkland Islands  [Malvinas]",     "alpha-2": "FK",     "alpha": "FLK",     "numeric": 238   },   {     "name": "Faroe Islands",     "alpha-2": "FO",     "alpha": "FRO",     "numeric": 234   },   {     "name": "Fiji",     "alpha-2": "FJ",     "alpha": "FJI",     "numeric": 242   },   {     "name": "Finland",     "alpha-2": "FI",     "alpha": "FIN",     "numeric": 246   },   {     "name": "France",     "alpha-2": "FR",     "alpha": "FRA",     "numeric": 250   },   {     "name": "French Guiana",     "alpha-2": "GF",     "alpha": "GUF",     "numeric": 254   },   {     "name": "French Polynesia",     "alpha-2": "PF",     "alpha": "PYF",     "numeric": 258   },   {     "name": "French Southern Territories",     "alpha-2": "TF",     "alpha": "ATF",     "numeric": 260   },   {     "name": "Gabon",     "alpha-2": "GA",     "alpha": "GAB",     "numeric": 266   },   {     "name": "Gambia",     "alpha-2": "GM",     "alpha": "GMB",     "numeric": 270   },   {     "name": "Georgia",     "alpha-2": "GE",     "alpha": "GEO",     "numeric": 268   },   {     "name": "Germany",     "alpha-2": "DE",     "alpha": "DEU",     "numeric": 276   },   {     "name": "Ghana",     "alpha-2": "GH",     "alpha": "GHA",     "numeric": 288   },   {     "name": "Gibraltar",     "alpha-2": "GI",     "alpha": "GIB",     "numeric": 292   },   {     "name": "Greece",     "alpha-2": "GR",     "alpha": "GRC",     "numeric": 300   },   {     "name": "Greenland",     "alpha-2": "GL",     "alpha": "GRL",     "numeric": 304   },   {     "name": "Grenada",     "alpha-2": "GD",     "alpha": "GRD",     "numeric": 308   },   {     "name": "Guadeloupe",     "alpha-2": "GP",     "alpha": "GLP",     "numeric": 312   },   {     "name": "Guam",     "alpha-2": "GU",     "alpha": "GUM",     "numeric": 316   },   {     "name": "Guatemala",     "alpha-2": "GT",     "alpha": "GTM",     "numeric": 320   },   {     "name": "Guernsey",     "alpha-2": "GG",     "alpha": "GGY",     "numeric": 831   },   {     "name": "Guinea",     "alpha-2": "GN",     "alpha": "GIN",     "numeric": 324   },   {     "name": "Guinea-Bissau",     "alpha-2": "GW",     "alpha": "GNB",     "numeric": 624   },   {     "name": "Guyana",     "alpha-2": "GY",     "alpha": "GUY",     "numeric": 328   },   {     "name": "Haiti",     "alpha-2": "HT",     "alpha": "HTI",     "numeric": 332   },   {     "name": "Heard Island and McDonald Islands",     "alpha-2": "HM",     "alpha": "HMD",     "numeric": 334   },   {     "name": "Holy See",     "alpha-2": "VA",     "alpha": "VAT",     "numeric": 336   },   {     "name": "Honduras",     "alpha-2": "HN",     "alpha": "HND",     "numeric": 340   },   {     "name": "Hong Kong",     "alpha-2": "HK",     "alpha": "HKG",     "numeric": 344   },   {     "name": "Hungary",     "alpha-2": "HU",     "alpha": "HUN",     "numeric": 348   },   {     "name": "Iceland",     "alpha-2": "IS",     "alpha": "ISL",     "numeric": 352   },   {     "name": "India",     "alpha-2": "IN",     "alpha": "IND",     "numeric": 356   },   {     "name": "Indonesia",     "alpha-2": "ID",     "alpha": "IDN",     "numeric": 360   },   {     "name": "Iran (Islamic Republic of)",     "alpha-2": "IR",     "alpha": "IRN",     "numeric": 364   },   {     "name": "Iraq",     "alpha-2": "IQ",     "alpha": "IRQ",     "numeric": 368   },   {     "name": "Ireland",     "alpha-2": "IE",     "alpha": "IRL",     "numeric": 372   },   {     "name": "Isle of Man",     "alpha-2": "IM",     "alpha": "IMN",     "numeric": 833   },   {     "name": "Italy",     "alpha-2": "IT",     "alpha": "ITA",     "numeric": 380   },   {     "name": "Jamaica",     "alpha-2": "JM",     "alpha": "JAM",     "numeric": 388   },   {     "name": "Japan",     "alpha-2": "JP",     "alpha": "JPN",     "numeric": 392   },   {     "name": "Jersey",     "alpha-2": "JE",     "alpha": "JEY",     "numeric": 832   },   {     "name": "Jordan",     "alpha-2": "JO",     "alpha": "JOR",     "numeric": 400   },   {     "name": "Kazakhstan",     "alpha-2": "KZ",     "alpha": "KAZ",     "numeric": 398   },   {     "name": "Kenya",     "alpha-2": "KE",     "alpha": "KEN",     "numeric": 404   },   {     "name": "Kiribati",     "alpha-2": "KI",     "alpha": "KIR",     "numeric": 296   },   {     "name": "Korea (the Democratic People's Republic of)",     "alpha-2": "KP",     "alpha": "PRK",     "numeric": 408   },   {     "name": "Korea (the Republic of)",     "alpha-2": "KR",     "alpha": "KOR",     "numeric": 410   },   {     "name": "Kuwait",     "alpha-2": "KW",     "alpha": "KWT",     "numeric": 414   },   {     "name": "Kyrgyzstan",     "alpha-2": "KG",     "alpha": "KGZ",     "numeric": 417   },   {     "name": "Lao People's Democratic Republic",     "alpha-2": "LA",     "alpha": "LAO",     "numeric": 418   },   {     "name": "Latvia",     "alpha-2": "LV",     "alpha": "LVA",     "numeric": 428   },   {     "name": "Lebanon",     "alpha-2": "LB",     "alpha": "LBN",     "numeric": 422   },   {     "name": "Lesotho",     "alpha-2": "LS",     "alpha": "LSO",     "numeric": 426   },   {     "name": "Liberia",     "alpha-2": "LR",     "alpha": "LBR",     "numeric": 430   },   {     "name": "Libya",     "alpha-2": "LY",     "alpha": "LBY",     "numeric": 434   },   {     "name": "Liechtenstein",     "alpha-2": "LI",     "alpha": "LIE",     "numeric": 438   },   {     "name": "Lithuania",     "alpha-2": "LT",     "alpha": "LTU",     "numeric": 440   },   {     "name": "Luxembourg",     "alpha-2": "LU",     "alpha": "LUX",     "numeric": 442   },   {     "name": "Macao",     "alpha-2": "MO",     "alpha": "MAC",     "numeric": 446   },   {     "name": "Madagascar",     "alpha-2": "MG",     "alpha": "MDG",     "numeric": 450   },   {     "name": "Malawi",     "alpha-2": "MW",     "alpha": "MWI",     "numeric": 454   },   {     "name": "Malaysia",     "alpha-2": "MY",     "alpha": "MYS",     "numeric": 458   },   {     "name": "Maldives",     "alpha-2": "MV",     "alpha": "MDV",     "numeric": 462   },   {     "name": "Mali",     "alpha-2": "ML",     "alpha": "MLI",     "numeric": 466   },   {     "name": "Malta",     "alpha-2": "MT",     "alpha": "MLT",     "numeric": 470   },   {     "name": "Marshall Islands",     "alpha-2": "MH",     "alpha": "MHL",     "numeric": 584   },   {     "name": "Martinique",     "alpha-2": "MQ",     "alpha": "MTQ",     "numeric": 474   },   {     "name": "Mauritania",     "alpha-2": "MR",     "alpha": "MRT",     "numeric": 478   },   {     "name": "Mauritius",     "alpha-2": "MU",     "alpha": "MUS",     "numeric": 480   },   {     "name": "Mayotte",     "alpha-2": "YT",     "alpha": "MYT",     "numeric": 175   },   {     "name": "Mexico",     "alpha-2": "MX",     "alpha": "MEX",     "numeric": 484   },   {     "name": "Micronesia (Federated States of)",     "alpha-2": "FM",     "alpha": "FSM",     "numeric": 583   },   {     "name": "Moldova (the Republic of)",     "alpha-2": "MD",     "alpha": "MDA",     "numeric": 498   },   {     "name": "Monaco",     "alpha-2": "MC",     "alpha": "MCO",     "numeric": 492   },   {     "name": "Mongolia",     "alpha-2": "MN",     "alpha": "MNG",     "numeric": 496   },   {     "name": "Montenegro",     "alpha-2": "ME",     "alpha": "MNE",     "numeric": 499   },   {     "name": "Montserrat",     "alpha-2": "MS",     "alpha": "MSR",     "numeric": 500   },   {     "name": "Morocco",     "alpha-2": "MA",     "alpha": "MAR",     "numeric": 504   },   {     "name": "Mozambique",     "alpha-2": "MZ",     "alpha": "MOZ",     "numeric": 508   },   {     "name": "Myanmar",     "alpha-2": "MM",     "alpha": "MMR",     "numeric": 104   },   {     "name": "Namibia",     "alpha-2": "NA",     "alpha": "NAM",     "numeric": 516   },   {     "name": "Nauru",     "alpha-2": "NR",     "alpha": "NRU",     "numeric": 520   },   {     "name": "Nepal",     "alpha-2": "NP",     "alpha": "NPL",     "numeric": 524   },   {     "name": "Netherlands",     "alpha-2": "NL",     "alpha": "NLD",     "numeric": 528   },   {     "name": "New Caledonia",     "alpha-2": "NC",     "alpha": "NCL",     "numeric": 540   },   {     "name": "New Zealand",     "alpha-2": "NZ",     "alpha": "NZL",     "numeric": 554   },   {     "name": "Nicaragua",     "alpha-2": "NI",     "alpha": "NIC",     "numeric": 558   },   {     "name": "Niger",     "alpha-2": "NE",     "alpha": "NER",     "numeric": 562   },   {     "name": "Nigeria",     "alpha-2": "NG",     "alpha": "NGA",     "numeric": 566   },   {     "name": "Niue",     "alpha-2": "NU",     "alpha": "NIU",     "numeric": 570   },   {     "name": "Norfolk Island",     "alpha-2": "NF",     "alpha": "NFK",     "numeric": 574   },   {     "name": "Northern Mariana Islands",     "alpha-2": "MP",     "alpha": "MNP",     "numeric": 580   },   {     "name": "Norway",     "alpha-2": "NO",     "alpha": "NOR",     "numeric": 578   },   {     "name": "Oman",     "alpha-2": "OM",     "alpha": "OMN",     "numeric": 512   },   {     "name": "Pakistan",     "alpha-2": "PK",     "alpha": "PAK",     "numeric": 586   },   {     "name": "Palau",     "alpha-2": "PW",     "alpha": "PLW",     "numeric": 585   },   {     "name": "Palestine, State of",     "alpha-2": "PS",     "alpha": "PSE",     "numeric": 275   },   {     "name": "Panama",     "alpha-2": "PA",     "alpha": "PAN",     "numeric": 591   },   {     "name": "Papua New Guinea",     "alpha-2": "PG",     "alpha": "PNG",     "numeric": 598   },   {     "name": "Paraguay",     "alpha-2": "PY",     "alpha": "PRY",     "numeric": 600   },   {     "name": "Peru",     "alpha-2": "PE",     "alpha": "PER",     "numeric": 604   },   {     "name": "Philippines",     "alpha-2": "PH",     "alpha": "PHL",     "numeric": 608   },   {     "name": "Pitcairn",     "alpha-2": "PN",     "alpha": "PCN",     "numeric": 612   },   {     "name": "Poland",     "alpha-2": "PL",     "alpha": "POL",     "numeric": 616   },   {     "name": "Portugal",     "alpha-2": "PT",     "alpha": "PRT",     "numeric": 620   },   {     "name": "Puerto Rico",     "alpha-2": "PR",     "alpha": "PRI",     "numeric": 630   },   {     "name": "Qatar",     "alpha-2": "QA",     "alpha": "QAT",     "numeric": 634   },   {     "name": "Republic of North Macedonia",     "alpha-2": "MK",     "alpha": "MKD",     "numeric": 807   },   {     "name": "Romania",     "alpha-2": "RO",     "alpha": "ROU",     "numeric": 642   },   {     "name": "Russian Federation",     "alpha-2": "RU",     "alpha": "RUS",     "numeric": 643   },   {     "name": "Rwanda",     "alpha-2": "RW",     "alpha": "RWA",     "numeric": 646   },   {     "name": "R'82union",     "alpha-2": "RE",     "alpha": "REU",     "numeric": 638   },   {     "name": "Saint Barth'82lemy",     "alpha-2": "BL",     "alpha": "BLM",     "numeric": 652   },   {     "name": "Saint Helena, Ascension and Tristan da Cunha",     "alpha-2": "SH",     "alpha": "SHN",     "numeric": 654   },   {     "name": "Saint Kitts and Nevis",     "alpha-2": "KN",     "alpha": "KNA",     "numeric": 659   },   {     "name": "Saint Lucia",     "alpha-2": "LC",     "alpha": "LCA",     "numeric": 662   },   {     "name": "Saint Martin (French part)",     "alpha-2": "MF",     "alpha": "MAF",     "numeric": 663   },   {     "name": "Saint Pierre and Miquelon",     "alpha-2": "PM",     "alpha": "SPM",     "numeric": 666   },   {     "name": "Saint Vincent and the Grenadines",     "alpha-2": "VC",     "alpha": "VCT",     "numeric": 670   },   {     "name": "Samoa",     "alpha-2": "WS",     "alpha": "WSM",     "numeric": 882   },   {     "name": "San Marino",     "alpha-2": "SM",     "alpha": "SMR",     "numeric": 674   },   {     "name": "Sao Tome and Principe",     "alpha-2": "ST",     "alpha": "STP",     "numeric": 678   },   {     "name": "Saudi Arabia",     "alpha-2": "SA",     "alpha": "SAU",     "numeric": 682   },   {     "name": "Senegal",     "alpha-2": "SN",     "alpha": "SEN",     "numeric": 686   },   {     "name": "Serbia",     "alpha-2": "RS",     "alpha": "SRB",     "numeric": 688   },   {     "name": "Seychelles",     "alpha-2": "SC",     "alpha": "SYC",     "numeric": 690   },   {     "name": "Sierra Leone",     "alpha-2": "SL",     "alpha": "SLE",     "numeric": 694   },   {     "name": "Singapore",     "alpha-2": "SG",     "alpha": "SGP",     "numeric": 702   },   {     "name": "Sint Maarten (Dutch part)",     "alpha-2": "SX",     "alpha": "SXM",     "numeric": 534   },   {     "name": "Slovakia",     "alpha-2": "SK",     "alpha": "SVK",     "numeric": 703   },   {     "name": "Slovenia",     "alpha-2": "SI",     "alpha": "SVN",     "numeric": 705   },   {     "name": "Solomon Islands",     "alpha-2": "SB",     "alpha": "SLB",     "numeric": "090"   },   {     "name": "Somalia",     "alpha-2": "SO",     "alpha": "SOM",     "numeric": 706   },   {     "name": "South Africa",     "alpha-2": "ZA",     "alpha": "ZAF",     "numeric": 710   },   {     "name": "South Georgia and the South Sandwich Islands",     "alpha-2": "GS",     "alpha": "SGS",     "numeric": 239   },   {     "name": "South Sudan",     "alpha-2": "SS",     "alpha": "SSD",     "numeric": 728   },   {     "name": "Spain",     "alpha-2": "ES",     "alpha": "ESP",     "numeric": 724   },   {     "name": "Sri Lanka",     "alpha-2": "LK",     "alpha": "LKA",     "numeric": 144   },   {     "name": "Sudan",     "alpha-2": "SD",     "alpha": "SDN",     "numeric": 729   },   {     "name": "Suriname",     "alpha-2": "SR",     "alpha": "SUR",     "numeric": 740   },   {     "name": "Svalbard and Jan Mayen",     "alpha-2": "SJ",     "alpha": "SJM",     "numeric": 744   },   {     "name": "Sweden",     "alpha-2": "SE",     "alpha": "SWE",     "numeric": 752   },   {     "name": "Switzerland",     "alpha-2": "CH",     "alpha": "CHE",     "numeric": 756   },   {     "name": "Syrian Arab Republic",     "alpha-2": "SY",     "alpha": "SYR",     "numeric": 760   },   {     "name": "Taiwan (Province of China)",     "alpha-2": "TW",     "alpha": "TWN",     "numeric": 158   },   {     "name": "Tajikistan",     "alpha-2": "TJ",     "alpha": "TJK",     "numeric": 762   },   {     "name": "Tanzania, United Republic of",     "alpha-2": "TZ",     "alpha": "TZA",     "numeric": 834   },   {     "name": "Thailand",     "alpha-2": "TH",     "alpha": "THA",     "numeric": 764   },   {     "name": "Timor-Leste",     "alpha-2": "TL",     "alpha": "TLS",     "numeric": 626   },   {     "name": "Togo",     "alpha-2": "TG",     "alpha": "TGO",     "numeric": 768   },   {     "name": "Tokelau",     "alpha-2": "TK",     "alpha": "TKL",     "numeric": 772   },   {     "name": "Tonga",     "alpha-2": "TO",     "alpha": "TON",     "numeric": 776   },   {     "name": "Trinidad and Tobago",     "alpha-2": "TT",     "alpha": "TTO",     "numeric": 780   },   {     "name": "Tunisia",     "alpha-2": "TN",     "alpha": "TUN",     "numeric": 788   },   {     "name": "Turkey",     "alpha-2": "TR",     "alpha": "TUR",     "numeric": 792   },   {     "name": "Turkmenistan",     "alpha-2": "TM",     "alpha": "TKM",     "numeric": 795   },   {     "name": "Turks and Caicos Islands",     "alpha-2": "TC",     "alpha": "TCA",     "numeric": 796   },   {     "name": "Tuvalu",     "alpha-2": "TV",     "alpha": "TUV",     "numeric": 798   },   {     "name": "Uganda",     "alpha-2": "UG",     "alpha": "UGA",     "numeric": 800   },   {     "name": "Ukraine",     "alpha-2": "UA",     "alpha": "UKR",     "numeric": 804   },   {     "name": "United Arab Emirates",     "alpha-2": "AE",     "alpha": "ARE",     "numeric": 784   },   {     "name": "United Kingdom",     "alpha-2": "GB",     "alpha": "GBR",     "numeric": 826   },   {     "name": "United States Minor Outlying Islands",     "alpha-2": "UM",     "alpha": "UMI",     "numeric": 581   },   {     "name": "United States of America",     "alpha-2": "US",     "alpha": "USA",     "numeric": 840   },   {     "name": "Uruguay",     "alpha-2": "UY",     "alpha": "URY",     "numeric": 858   },   {     "name": "Uzbekistan",     "alpha-2": "UZ",     "alpha": "UZB",     "numeric": 860   },   {     "name": "Vanuatu",     "alpha-2": "VU",     "alpha": "VUT",     "numeric": 548   },   {     "name": "Venezuela (Bolivarian Republic of)",     "alpha-2": "VE",     "alpha": "VEN",     "numeric": 862   },   {     "name": "Viet Nam",     "alpha-2": "VN",     "alpha": "VNM",     "numeric": 704   },   {     "name": "Virgin Islands (British)",     "alpha-2": "VG",     "alpha": "VGB",     "numeric": "092"   },   {     "name": "Virgin Islands (U.S.)",     "alpha-2": "VI",     "alpha": "VIR",     "numeric": 850   },   {     "name": "Wallis and Futuna",     "alpha-2": "WF",     "alpha": "WLF",     "numeric": 876   },   {     "name": "Western Sahara",     "alpha-2": "EH",     "alpha": "ESH",     "numeric": 732   },   {     "name": "Yemen",     "alpha-2": "YE",     "alpha": "YEM",     "numeric": 887   },   {     "name": "Zambia",     "alpha-2": "ZM",     "alpha": "ZMB",     "numeric": 894   },   {     "name": "Zimbabwe",     "alpha-2": "ZW",     "alpha": "ZWE",     "numeric": 716   },   {     "name": "Aland Islands",     "alpha-2": "AX",     "alpha": "ALA",     "numeric": 248   } ] }


